{
  "images" : [
    {
      "idiom" : "universal",
      "filename" : "polls_people_count.png",
      "scale" : "1x"
    },
    {
      "idiom" : "universal",
      "filename" : "polls_people_count@2x.png",
      "scale" : "2x"
    },
    {
      "idiom" : "universal",
      "filename" : "polls_people_count@3x.png",
      "scale" : "3x"
    }
  ],
  "info" : {
    "version" : 1,
    "author" : "xcode"
  }
}